Assignment-2/A5/RegisterFile.vcd
$date
	Fri Oct 26 02:07:04 2018
$end
$version
	Icarus Verilog
$end
$timescale
	1s
$end
$scope module t_RegisterFile $end
$var wire 32 ! readData2 [0:31] $end
$var wire 32 " readData1 [0:31] $end
$var reg 5 # readReg1 [0:4] $end
$var reg 5 $ readReg2 [0:4] $end
$var reg 32 % reg_data [0:31] $end
$var reg 5 & register_no [0:4] $end
$var reg 1 ' write $end
$var integer 32 ( i [31:0] $end
$scope module inst $end
$var wire 5 ) Read_Register1 [4:0] $end
$var wire 5 * Read_Register2 [4:0] $end
$var wire 1 ' RegWrite $end
$var wire 32 + Write_Data [31:0] $end
$var wire 5 , Write_Register [4:0] $end
$var wire 1024 - Out [1023:0] $end
$var reg 1024 . Data_Write [1023:0] $end
$var reg 32 / Read_Data1 [31:0] $end
$var reg 32 0 Read_Data2 [31:0] $end
$var reg 32 1 Write [31:0] $end
$scope module r0 $end
$var wire 32 2 Data_Write [31:0] $end
$var wire 1 3 Write $end
$var reg 32 4 Data [31:0] $end
$upscope $end
$scope module r1 $end
$var wire 32 5 Data_Write [31:0] $end
$var wire 1 6 Write $end
$var reg 32 7 Data [31:0] $end
$upscope $end
$scope module r10 $end
$var wire 32 8 Data_Write [31:0] $end
$var wire 1 9 Write $end
$var reg 32 : Data [31:0] $end
$upscope $end
$scope module r11 $end
$var wire 32 ; Data_Write [31:0] $end
$var wire 1 < Write $end
$var reg 32 = Data [31:0] $end
$upscope $end
$scope module r12 $end
$var wire 32 > Data_Write [31:0] $end
$var wire 1 ? Write $end
$var reg 32 @ Data [31:0] $end
$upscope $end
$scope module r13 $end
$var wire 32 A Data_Write [31:0] $end
$var wire 1 B Write $end
$var reg 32 C Data [31:0] $end
$upscope $end
$scope module r14 $end
$var wire 32 D Data_Write [31:0] $end
$var wire 1 E Write $end
$var reg 32 F Data [31:0] $end
$upscope $end
$scope module r15 $end
$var wire 32 G Data_Write [31:0] $end
$var wire 1 H Write $end
$var reg 32 I Data [31:0] $end
$upscope $end
$scope module r16 $end
$var wire 32 J Data_Write [31:0] $end
$var wire 1 K Write $end
$var reg 32 L Data [31:0] $end
$upscope $end
$scope module r17 $end
$var wire 32 M Data_Write [31:0] $end
$var wire 1 N Write $end
$var reg 32 O Data [31:0] $end
$upscope $end
$scope module r18 $end
$var wire 32 P Data_Write [31:0] $end
$var wire 1 Q Write $end
$var reg 32 R Data [31:0] $end
$upscope $end
$scope module r19 $end
$var wire 32 S Data_Write [31:0] $end
$var wire 1 T Write $end
$var reg 32 U Data [31:0] $end
$upscope $end
$scope module r2 $end
$var wire 32 V Data_Write [31:0] $end
$var wire 1 W Write $end
$var reg 32 X Data [31:0] $end
$upscope $end
$scope module r20 $end
$var wire 32 Y Data_Write [31:0] $end
$var wire 1 Z Write $end
$var reg 32 [ Data [31:0] $end
$upscope $end
$scope module r21 $end
$var wire 32 \ Data_Write [31:0] $end
$var wire 1 ] Write $end
$var reg 32 ^ Data [31:0] $end
$upscope $end
$scope module r22 $end
$var wire 32 _ Data_Write [31:0] $end
$var wire 1 ` Write $end
$var reg 32 a Data [31:0] $end
$upscope $end
$scope module r23 $end
$var wire 32 b Data_Write [31:0] $end
$var wire 1 c Write $end
$var reg 32 d Data [31:0] $end
$upscope $end
$scope module r24 $end
$var wire 32 e Data_Write [31:0] $end
$var wire 1 f Write $end
$var reg 32 g Data [31:0] $end
$upscope $end
$scope module r25 $end
$var wire 32 h Data_Write [31:0] $end
$var wire 1 i Write $end
$var reg 32 j Data [31:0] $end
$upscope $end
$scope module r26 $end
$var wire 32 k Data_Write [31:0] $end
$var wire 1 l Write $end
$var reg 32 m Data [31:0] $end
$upscope $end
$scope module r27 $end
$var wire 32 n Data_Write [31:0] $end
$var wire 1 o Write $end
$var reg 32 p Data [31:0] $end
$upscope $end
$scope module r28 $end
$var wire 32 q Data_Write [31:0] $end
$var wire 1 r Write $end
$var reg 32 s Data [31:0] $end
$upscope $end
$scope module r29 $end
$var wire 32 t Data_Write [31:0] $end
$var wire 1 u Write $end
$var reg 32 v Data [31:0] $end
$upscope $end
$scope module r3 $end
$var wire 32 w Data_Write [31:0] $end
$var wire 1 x Write $end
$var reg 32 y Data [31:0] $end
$upscope $end
$scope module r30 $end
$var wire 32 z Data_Write [31:0] $end
$var wire 1 { Write $end
$var reg 32 | Data [31:0] $end
$upscope $end
$scope module r31 $end
$var wire 32 } Data_Write [31:0] $end
$var wire 1 ~ Write $end
$var reg 32 !" Data [31:0] $end
$upscope $end
$scope module r4 $end
$var wire 32 "" Data_Write [31:0] $end
$var wire 1 #" Write $end
$var reg 32 $" Data [31:0] $end
$upscope $end
$scope module r5 $end
$var wire 32 %" Data_Write [31:0] $end
$var wire 1 &" Write $end
$var reg 32 '" Data [31:0] $end
$upscope $end
$scope module r6 $end
$var wire 32 (" Data_Write [31:0] $end
$var wire 1 )" Write $end
$var reg 32 *" Data [31:0] $end
$upscope $end
$scope module r7 $end
$var wire 32 +" Data_Write [31:0] $end
$var wire 1 ," Write $end
$var reg 32 -" Data [31:0] $end
$upscope $end
$scope module r8 $end
$var wire 32 ." Data_Write [31:0] $end
$var wire 1 /" Write $end
$var reg 32 0" Data [31:0] $end
$upscope $end
$scope module r9 $end
$var wire 32 1" Data_Write [31:0] $end
$var wire 1 2" Write $end
$var reg 32 3" Data [31:0] $end
$upscope $end
$upscope $end
$upscope $end
$enddefinitions $end
#0
$dumpvars
b0 3"
x2"
bx 1"
b0 0"
x/"
bx ."
b0 -"
x,"
bx +"
b0 *"
x)"
bx ("
b0 '"
x&"
bx %"
b0 $"
x#"
bx ""
b0 !"
x~
bx }
b0 |
x{
bx z
b0 y
xx
bx w
b0 v
xu
bx t
b0 s
xr
bx q
b0 p
xo
bx n
b0 m
xl
bx k
b0 j
xi
bx h
b0 g
xf
bx e
b0 d
xc
bx b
b0 a
x`
bx _
b0 ^
x]
bx \
b0 [
xZ
bx Y
b0 X
xW
bx V
b0 U
xT
bx S
b0 R
xQ
bx P
b0 O
xN
bx M
b0 L
xK
bx J
b0 I
xH
bx G
b0 F
xE
bx D
b0 C
xB
bx A
b0 @
x?
bx >
b0 =
x<
bx ;
b0 :
x9
bx 8
b0 7
x6
bx 5
b0 4
13
b0 2
bx1 1
bx 0
bx /
bx00000000000000000000000000000000 .
b0 -
b0 ,
b0 +
b0 *
b0 )
b0 (
1'
b0 &
b0 %
b0 $
b0 #
bx "
bx !
$end
#1
03
b0 !
b0 0
b0 "
b0 /
bx0 1
0'
#2
b1 &
b1 ,
#3
b1 %
b1 +
#4
b100000000000000000000000000000000 -
b1 7
b1 5
16
bx0000000000000000000000000000000100000000000000000000000000000000 .
bx10 1
b1 (
1'
#5
0'
#6
b10 &
b10 ,
#7
b10 %
b10 +
#8
b100000000000000000000000000000000100000000000000000000000000000000 -
b10 X
b10 V
1W
bx000000000000000000000000000000100000000000000000000000000000000100000000000000000000000000000000 .
bx110 1
b10 (
1'
#9
0'
#10
b11 &
b11 ,
#11
b11 %
b11 +
#12
b11000000000000000000000000000000100000000000000000000000000000000100000000000000000000000000000000 -
b11 y
b11 w
1x
bx00000000000000000000000000000011000000000000000000000000000000100000000000000000000000000000000100000000000000000000000000000000 .
bx1110 1
b11 (
1'
#13
0'
#14
b100 &
b100 ,
#15
b100 %
b100 +
#16
b10000000000000000000000000000000011000000000000000000000000000000100000000000000000000000000000000100000000000000000000000000000000 -
b100 $"
b100 ""
1#"
bx0000000000000000000000000000010000000000000000000000000000000011000000000000000000000000000000100000000000000000000000000000000100000000000000000000000000000000 .
bx11110 1
b100 (
1'
#17
0'
#18
b101 &
b101 ,
#19
b101 %
b101 +
#20
b1010000000000000000000000000000010000000000000000000000000000000011000000000000000000000000000000100000000000000000000000000000000100000000000000000000000000000000 -
b101 '"
b101 %"
1&"
bx000000000000000000000000000001010000000000000000000000000000010000000000000000000000000000000011000000000000000000000000000000100000000000000000000000000000000100000000000000000000000000000000 .
bx111110 1
b101 (
1'
#21
0'
#22
b110 &
b110 ,
#23
b110 %
b110 +
#24
b110000000000000000000000000000001010000000000000000000000000000010000000000000000000000000000000011000000000000000000000000000000100000000000000000000000000000000100000000000000000000000000000000 -
b110 *"
b110 ("
1)"
bx00000000000000000000000000000110000000000000000000000000000001010000000000000000000000000000010000000000000000000000000000000011000000000000000000000000000000100000000000000000000000000000000100000000000000000000000000000000 .
bx1111110 1
b110 (
1'
#25
0'
#26
b111 &
b111 ,
#27
b111 %
b111 +
#28
b11100000000000000000000000000000110000000000000000000000000000001010000000000000000000000000000010000000000000000000000000000000011000000000000000000000000000000100000000000000000000000000000000100000000000000000000000000000000 -
b111 -"
b111 +"
1,"
bx0000000000000000000000000000011100000000000000000000000000000110000000000000000000000000000001010000000000000000000000000000010000000000000000000000000000000011000000000000000000000000000000100000000000000000000000000000000100000000000000000000000000000000 .
bx11111110 1
b111 (
1'
#29
0'
#30
b1000 &
b1000 ,
#31
b1000 %
b1000 +
#32
b10000000000000000000000000000000011100000000000000000000000000000110000000000000000000000000000001010000000000000000000000000000010000000000000000000000000000000011000000000000000000000000000000100000000000000000000000000000000100000000000000000000000000000000 -
b1000 0"
b1000 ."
1/"
bx000000000000000000000000000010000000000000000000000000000000011100000000000000000000000000000110000000000000000000000000000001010000000000000000000000000000010000000000000000000000000000000011000000000000000000000000000000100000000000000000000000000000000100000000000000000000000000000000 .
bx111111110 1
b1000 (
1'
#33
0'
#34
b1001 &
b1001 ,
#35
b1001 %
b1001 +
#36
b1001000000000000000000000000000010000000000000000000000000000000011100000000000000000000000000000110000000000000000000000000000001010000000000000000000000000000010000000000000000000000000000000011000000000000000000000000000000100000000000000000000000000000000100000000000000000000000000000000 -
b1001 3"
b1001 1"
12"
bx00000000000000000000000000001001000000000000000000000000000010000000000000000000000000000000011100000000000000000000000000000110000000000000000000000000000001010000000000000000000000000000010000000000000000000000000000000011000000000000000000000000000000100000000000000000000000000000000100000000000000000000000000000000 .
bx1111111110 1
b1001 (
1'
#37
0'
#38
b1010 &
b1010 ,
#39
b1010 %
b1010 +
#40
b101000000000000000000000000000001001000000000000000000000000000010000000000000000000000000000000011100000000000000000000000000000110000000000000000000000000000001010000000000000000000000000000010000000000000000000000000000000011000000000000000000000000000000100000000000000000000000000000000100000000000000000000000000000000 -
b1010 :
b1010 8
19
bx0000000000000000000000000000101000000000000000000000000000001001000000000000000000000000000010000000000000000000000000000000011100000000000000000000000000000110000000000000000000000000000001010000000000000000000000000000010000000000000000000000000000000011000000000000000000000000000000100000000000000000000000000000000100000000000000000000000000000000 .
bx11111111110 1
b1010 (
1'
#41
0'
#42
b1011 &
b1011 ,
#43
b1011 %
b1011 +
#44
b10110000000000000000000000000000101000000000000000000000000000001001000000000000000000000000000010000000000000000000000000000000011100000000000000000000000000000110000000000000000000000000000001010000000000000000000000000000010000000000000000000000000000000011000000000000000000000000000000100000000000000000000000000000000100000000000000000000000000000000 -
b1011 =
b1011 ;
1<
bx000000000000000000000000000010110000000000000000000000000000101000000000000000000000000000001001000000000000000000000000000010000000000000000000000000000000011100000000000000000000000000000110000000000000000000000000000001010000000000000000000000000000010000000000000000000000000000000011000000000000000000000000000000100000000000000000000000000000000100000000000000000000000000000000 .
bx111111111110 1
b1011 (
1'
#45
0'
#46
b1100 &
b1100 ,
#47
b1100 %
b1100 +
#48
b1100000000000000000000000000000010110000000000000000000000000000101000000000000000000000000000001001000000000000000000000000000010000000000000000000000000000000011100000000000000000000000000000110000000000000000000000000000001010000000000000000000000000000010000000000000000000000000000000011000000000000000000000000000000100000000000000000000000000000000100000000000000000000000000000000 -
b1100 @
b1100 >
1?
bx00000000000000000000000000001100000000000000000000000000000010110000000000000000000000000000101000000000000000000000000000001001000000000000000000000000000010000000000000000000000000000000011100000000000000000000000000000110000000000000000000000000000001010000000000000000000000000000010000000000000000000000000000000011000000000000000000000000000000100000000000000000000000000000000100000000000000000000000000000000 .
bx1111111111110 1
b1100 (
1'
#49
0'
#50
b1101 &
b1101 ,
#51
b1101 %
b1101 +
#52
b110100000000000000000000000000001100000000000000000000000000000010110000000000000000000000000000101000000000000000000000000000001001000000000000000000000000000010000000000000000000000000000000011100000000000000000000000000000110000000000000000000000000000001010000000000000000000000000000010000000000000000000000000000000011000000000000000000000000000000100000000000000000000000000000000100000000000000000000000000000000 -
b1101 C
b1101 A
1B
bx0000000000000000000000000000110100000000000000000000000000001100000000000000000000000000000010110000000000000000000000000000101000000000000000000000000000001001000000000000000000000000000010000000000000000000000000000000011100000000000000000000000000000110000000000000000000000000000001010000000000000000000000000000010000000000000000000000000000000011000000000000000000000000000000100000000000000000000000000000000100000000000000000000000000000000 .
bx11111111111110 1
b1101 (
1'
#53
0'
#54
b1110 &
b1110 ,
#55
b1110 %
b1110 +
#56
b11100000000000000000000000000000110100000000000000000000000000001100000000000000000000000000000010110000000000000000000000000000101000000000000000000000000000001001000000000000000000000000000010000000000000000000000000000000011100000000000000000000000000000110000000000000000000000000000001010000000000000000000000000000010000000000000000000000000000000011000000000000000000000000000000100000000000000000000000000000000100000000000000000000000000000000 -
b1110 F
b1110 D
1E
bx000000000000000000000000000011100000000000000000000000000000110100000000000000000000000000001100000000000000000000000000000010110000000000000000000000000000101000000000000000000000000000001001000000000000000000000000000010000000000000000000000000000000011100000000000000000000000000000110000000000000000000000000000001010000000000000000000000000000010000000000000000000000000000000011000000000000000000000000000000100000000000000000000000000000000100000000000000000000000000000000 .
bx111111111111110 1
b1110 (
1'
#57
0'
#58
b1111 &
b1111 ,
#59
b1111 %
b1111 +
#60
b1111000000000000000000000000000011100000000000000000000000000000110100000000000000000000000000001100000000000000000000000000000010110000000000000000000000000000101000000000000000000000000000001001000000000000000000000000000010000000000000000000000000000000011100000000000000000000000000000110000000000000000000000000000001010000000000000000000000000000010000000000000000000000000000000011000000000000000000000000000000100000000000000000000000000000000100000000000000000000000000000000 -
b1111 I
b1111 G
1H
bx00000000000000000000000000001111000000000000000000000000000011100000000000000000000000000000110100000000000000000000000000001100000000000000000000000000000010110000000000000000000000000000101000000000000000000000000000001001000000000000000000000000000010000000000000000000000000000000011100000000000000000000000000000110000000000000000000000000000001010000000000000000000000000000010000000000000000000000000000000011000000000000000000000000000000100000000000000000000000000000000100000000000000000000000000000000 .
bx1111111111111110 1
b1111 (
1'
#61
0'
#62
b10000 &
b10000 ,
#63
b10000 %
b10000 +
#64
b1000000000000000000000000000000001111000000000000000000000000000011100000000000000000000000000000110100000000000000000000000000001100000000000000000000000000000010110000000000000000000000000000101000000000000000000000000000001001000000000000000000000000000010000000000000000000000000000000011100000000000000000000000000000110000000000000000000000000000001010000000000000000000000000000010000000000000000000000000000000011000000000000000000000000000000100000000000000000000000000000000100000000000000000000000000000000 -
b10000 L
b10000 J
1K
bx0000000000000000000000000001000000000000000000000000000000001111000000000000000000000000000011100000000000000000000000000000110100000000000000000000000000001100000000000000000000000000000010110000000000000000000000000000101000000000000000000000000000001001000000000000000000000000000010000000000000000000000000000000011100000000000000000000000000000110000000000000000000000000000001010000000000000000000000000000010000000000000000000000000000000011000000000000000000000000000000100000000000000000000000000000000100000000000000000000000000000000 .
bx11111111111111110 1
b10000 (
1'
#65
0'
#66
b10001 &
b10001 ,
#67
b10001 %
b10001 +
#68
b100010000000000000000000000000001000000000000000000000000000000001111000000000000000000000000000011100000000000000000000000000000110100000000000000000000000000001100000000000000000000000000000010110000000000000000000000000000101000000000000000000000000000001001000000000000000000000000000010000000000000000000000000000000011100000000000000000000000000000110000000000000000000000000000001010000000000000000000000000000010000000000000000000000000000000011000000000000000000000000000000100000000000000000000000000000000100000000000000000000000000000000 -
b10001 O
b10001 M
1N
bx000000000000000000000000000100010000000000000000000000000001000000000000000000000000000000001111000000000000000000000000000011100000000000000000000000000000110100000000000000000000000000001100000000000000000000000000000010110000000000000000000000000000101000000000000000000000000000001001000000000000000000000000000010000000000000000000000000000000011100000000000000000000000000000110000000000000000000000000000001010000000000000000000000000000010000000000000000000000000000000011000000000000000000000000000000100000000000000000000000000000000100000000000000000000000000000000 .
bx111111111111111110 1
b10001 (
1'
#69
0'
#70
b10010 &
b10010 ,
#71
b10010 %
b10010 +
#72
b10010000000000000000000000000000100010000000000000000000000000001000000000000000000000000000000001111000000000000000000000000000011100000000000000000000000000000110100000000000000000000000000001100000000000000000000000000000010110000000000000000000000000000101000000000000000000000000000001001000000000000000000000000000010000000000000000000000000000000011100000000000000000000000000000110000000000000000000000000000001010000000000000000000000000000010000000000000000000000000000000011000000000000000000000000000000100000000000000000000000000000000100000000000000000000000000000000 -
b10010 R
b10010 P
1Q
bx00000000000000000000000000010010000000000000000000000000000100010000000000000000000000000001000000000000000000000000000000001111000000000000000000000000000011100000000000000000000000000000110100000000000000000000000000001100000000000000000000000000000010110000000000000000000000000000101000000000000000000000000000001001000000000000000000000000000010000000000000000000000000000000011100000000000000000000000000000110000000000000000000000000000001010000000000000000000000000000010000000000000000000000000000000011000000000000000000000000000000100000000000000000000000000000000100000000000000000000000000000000 .
bx1111111111111111110 1
b10010 (
1'
#73
0'
#74
b10011 &
b10011 ,
#75
b10011 %
b10011 +
#76
b1001100000000000000000000000000010010000000000000000000000000000100010000000000000000000000000001000000000000000000000000000000001111000000000000000000000000000011100000000000000000000000000000110100000000000000000000000000001100000000000000000000000000000010110000000000000000000000000000101000000000000000000000000000001001000000000000000000000000000010000000000000000000000000000000011100000000000000000000000000000110000000000000000000000000000001010000000000000000000000000000010000000000000000000000000000000011000000000000000000000000000000100000000000000000000000000000000100000000000000000000000000000000 -
b10011 U
b10011 S
1T
bx0000000000000000000000000001001100000000000000000000000000010010000000000000000000000000000100010000000000000000000000000001000000000000000000000000000000001111000000000000000000000000000011100000000000000000000000000000110100000000000000000000000000001100000000000000000000000000000010110000000000000000000000000000101000000000000000000000000000001001000000000000000000000000000010000000000000000000000000000000011100000000000000000000000000000110000000000000000000000000000001010000000000000000000000000000010000000000000000000000000000000011000000000000000000000000000000100000000000000000000000000000000100000000000000000000000000000000 .
bx11111111111111111110 1
b10011 (
1'
#77
0'
#78
b10100 &
b10100 ,
#79
b10100 %
b10100 +
#80
b101000000000000000000000000000001001100000000000000000000000000010010000000000000000000000000000100010000000000000000000000000001000000000000000000000000000000001111000000000000000000000000000011100000000000000000000000000000110100000000000000000000000000001100000000000000000000000000000010110000000000000000000000000000101000000000000000000000000000001001000000000000000000000000000010000000000000000000000000000000011100000000000000000000000000000110000000000000000000000000000001010000000000000000000000000000010000000000000000000000000000000011000000000000000000000000000000100000000000000000000000000000000100000000000000000000000000000000 -
b10100 [
b10100 Y
1Z
bx000000000000000000000000000101000000000000000000000000000001001100000000000000000000000000010010000000000000000000000000000100010000000000000000000000000001000000000000000000000000000000001111000000000000000000000000000011100000000000000000000000000000110100000000000000000000000000001100000000000000000000000000000010110000000000000000000000000000101000000000000000000000000000001001000000000000000000000000000010000000000000000000000000000000011100000000000000000000000000000110000000000000000000000000000001010000000000000000000000000000010000000000000000000000000000000011000000000000000000000000000000100000000000000000000000000000000100000000000000000000000000000000 .
bx111111111111111111110 1
b10100 (
1'
#81
0'
#82
b10101 &
b10101 ,
#83
b10101 %
b10101 +
#84
b10101000000000000000000000000000101000000000000000000000000000001001100000000000000000000000000010010000000000000000000000000000100010000000000000000000000000001000000000000000000000000000000001111000000000000000000000000000011100000000000000000000000000000110100000000000000000000000000001100000000000000000000000000000010110000000000000000000000000000101000000000000000000000000000001001000000000000000000000000000010000000000000000000000000000000011100000000000000000000000000000110000000000000000000000000000001010000000000000000000000000000010000000000000000000000000000000011000000000000000000000000000000100000000000000000000000000000000100000000000000000000000000000000 -
b10101 ^
b10101 \
1]
bx00000000000000000000000000010101000000000000000000000000000101000000000000000000000000000001001100000000000000000000000000010010000000000000000000000000000100010000000000000000000000000001000000000000000000000000000000001111000000000000000000000000000011100000000000000000000000000000110100000000000000000000000000001100000000000000000000000000000010110000000000000000000000000000101000000000000000000000000000001001000000000000000000000000000010000000000000000000000000000000011100000000000000000000000000000110000000000000000000000000000001010000000000000000000000000000010000000000000000000000000000000011000000000000000000000000000000100000000000000000000000000000000100000000000000000000000000000000 .
bx1111111111111111111110 1
b10101 (
1'
#85
0'
#86
b10110 &
b10110 ,
#87
b10110 %
b10110 +
#88
b1011000000000000000000000000000010101000000000000000000000000000101000000000000000000000000000001001100000000000000000000000000010010000000000000000000000000000100010000000000000000000000000001000000000000000000000000000000001111000000000000000000000000000011100000000000000000000000000000110100000000000000000000000000001100000000000000000000000000000010110000000000000000000000000000101000000000000000000000000000001001000000000000000000000000000010000000000000000000000000000000011100000000000000000000000000000110000000000000000000000000000001010000000000000000000000000000010000000000000000000000000000000011000000000000000000000000000000100000000000000000000000000000000100000000000000000000000000000000 -
b10110 a
b10110 _
1`
bx0000000000000000000000000001011000000000000000000000000000010101000000000000000000000000000101000000000000000000000000000001001100000000000000000000000000010010000000000000000000000000000100010000000000000000000000000001000000000000000000000000000000001111000000000000000000000000000011100000000000000000000000000000110100000000000000000000000000001100000000000000000000000000000010110000000000000000000000000000101000000000000000000000000000001001000000000000000000000000000010000000000000000000000000000000011100000000000000000000000000000110000000000000000000000000000001010000000000000000000000000000010000000000000000000000000000000011000000000000000000000000000000100000000000000000000000000000000100000000000000000000000000000000 .
bx11111111111111111111110 1
b10110 (
1'
#89
0'
#90
b10111 &
b10111 ,
#91
b10111 %
b10111 +
#92
b101110000000000000000000000000001011000000000000000000000000000010101000000000000000000000000000101000000000000000000000000000001001100000000000000000000000000010010000000000000000000000000000100010000000000000000000000000001000000000000000000000000000000001111000000000000000000000000000011100000000000000000000000000000110100000000000000000000000000001100000000000000000000000000000010110000000000000000000000000000101000000000000000000000000000001001000000000000000000000000000010000000000000000000000000000000011100000000000000000000000000000110000000000000000000000000000001010000000000000000000000000000010000000000000000000000000000000011000000000000000000000000000000100000000000000000000000000000000100000000000000000000000000000000 -
b10111 d
b10111 b
1c
bx000000000000000000000000000101110000000000000000000000000001011000000000000000000000000000010101000000000000000000000000000101000000000000000000000000000001001100000000000000000000000000010010000000000000000000000000000100010000000000000000000000000001000000000000000000000000000000001111000000000000000000000000000011100000000000000000000000000000110100000000000000000000000000001100000000000000000000000000000010110000000000000000000000000000101000000000000000000000000000001001000000000000000000000000000010000000000000000000000000000000011100000000000000000000000000000110000000000000000000000000000001010000000000000000000000000000010000000000000000000000000000000011000000000000000000000000000000100000000000000000000000000000000100000000000000000000000000000000 .
bx111111111111111111111110 1
b10111 (
1'
#93
0'
#94
b11000 &
b11000 ,
#95
b11000 %
b11000 +
#96
b11000000000000000000000000000000101110000000000000000000000000001011000000000000000000000000000010101000000000000000000000000000101000000000000000000000000000001001100000000000000000000000000010010000000000000000000000000000100010000000000000000000000000001000000000000000000000000000000001111000000000000000000000000000011100000000000000000000000000000110100000000000000000000000000001100000000000000000000000000000010110000000000000000000000000000101000000000000000000000000000001001000000000000000000000000000010000000000000000000000000000000011100000000000000000000000000000110000000000000000000000000000001010000000000000000000000000000010000000000000000000000000000000011000000000000000000000000000000100000000000000000000000000000000100000000000000000000000000000000 -
b11000 g
b11000 e
1f
bx00000000000000000000000000011000000000000000000000000000000101110000000000000000000000000001011000000000000000000000000000010101000000000000000000000000000101000000000000000000000000000001001100000000000000000000000000010010000000000000000000000000000100010000000000000000000000000001000000000000000000000000000000001111000000000000000000000000000011100000000000000000000000000000110100000000000000000000000000001100000000000000000000000000000010110000000000000000000000000000101000000000000000000000000000001001000000000000000000000000000010000000000000000000000000000000011100000000000000000000000000000110000000000000000000000000000001010000000000000000000000000000010000000000000000000000000000000011000000000000000000000000000000100000000000000000000000000000000100000000000000000000000000000000 .
bx1111111111111111111111110 1
b11000 (
1'
#97
0'
#98
b11001 &
b11001 ,
#99
b11001 %
b11001 +
#100
b1100100000000000000000000000000011000000000000000000000000000000101110000000000000000000000000001011000000000000000000000000000010101000000000000000000000000000101000000000000000000000000000001001100000000000000000000000000010010000000000000000000000000000100010000000000000000000000000001000000000000000000000000000000001111000000000000000000000000000011100000000000000000000000000000110100000000000000000000000000001100000000000000000000000000000010110000000000000000000000000000101000000000000000000000000000001001000000000000000000000000000010000000000000000000000000000000011100000000000000000000000000000110000000000000000000000000000001010000000000000000000000000000010000000000000000000000000000000011000000000000000000000000000000100000000000000000000000000000000100000000000000000000000000000000 -
b11001 j
b11001 h
1i
bx0000000000000000000000000001100100000000000000000000000000011000000000000000000000000000000101110000000000000000000000000001011000000000000000000000000000010101000000000000000000000000000101000000000000000000000000000001001100000000000000000000000000010010000000000000000000000000000100010000000000000000000000000001000000000000000000000000000000001111000000000000000000000000000011100000000000000000000000000000110100000000000000000000000000001100000000000000000000000000000010110000000000000000000000000000101000000000000000000000000000001001000000000000000000000000000010000000000000000000000000000000011100000000000000000000000000000110000000000000000000000000000001010000000000000000000000000000010000000000000000000000000000000011000000000000000000000000000000100000000000000000000000000000000100000000000000000000000000000000 .
bx11111111111111111111111110 1
b11001 (
1'
#101
0'
#102
b11010 &
b11010 ,
#103
b11010 %
b11010 +
#104
b110100000000000000000000000000001100100000000000000000000000000011000000000000000000000000000000101110000000000000000000000000001011000000000000000000000000000010101000000000000000000000000000101000000000000000000000000000001001100000000000000000000000000010010000000000000000000000000000100010000000000000000000000000001000000000000000000000000000000001111000000000000000000000000000011100000000000000000000000000000110100000000000000000000000000001100000000000000000000000000000010110000000000000000000000000000101000000000000000000000000000001001000000000000000000000000000010000000000000000000000000000000011100000000000000000000000000000110000000000000000000000000000001010000000000000000000000000000010000000000000000000000000000000011000000000000000000000000000000100000000000000000000000000000000100000000000000000000000000000000 -
b11010 m
b11010 k
1l
bx000000000000000000000000000110100000000000000000000000000001100100000000000000000000000000011000000000000000000000000000000101110000000000000000000000000001011000000000000000000000000000010101000000000000000000000000000101000000000000000000000000000001001100000000000000000000000000010010000000000000000000000000000100010000000000000000000000000001000000000000000000000000000000001111000000000000000000000000000011100000000000000000000000000000110100000000000000000000000000001100000000000000000000000000000010110000000000000000000000000000101000000000000000000000000000001001000000000000000000000000000010000000000000000000000000000000011100000000000000000000000000000110000000000000000000000000000001010000000000000000000000000000010000000000000000000000000000000011000000000000000000000000000000100000000000000000000000000000000100000000000000000000000000000000 .
bx111111111111111111111111110 1
b11010 (
1'
#105
0'
#106
b11011 &
b11011 ,
#107
b11011 %
b11011 +
#108
b11011000000000000000000000000000110100000000000000000000000000001100100000000000000000000000000011000000000000000000000000000000101110000000000000000000000000001011000000000000000000000000000010101000000000000000000000000000101000000000000000000000000000001001100000000000000000000000000010010000000000000000000000000000100010000000000000000000000000001000000000000000000000000000000001111000000000000000000000000000011100000000000000000000000000000110100000000000000000000000000001100000000000000000000000000000010110000000000000000000000000000101000000000000000000000000000001001000000000000000000000000000010000000000000000000000000000000011100000000000000000000000000000110000000000000000000000000000001010000000000000000000000000000010000000000000000000000000000000011000000000000000000000000000000100000000000000000000000000000000100000000000000000000000000000000 -
b11011 p
b11011 n
1o
bx00000000000000000000000000011011000000000000000000000000000110100000000000000000000000000001100100000000000000000000000000011000000000000000000000000000000101110000000000000000000000000001011000000000000000000000000000010101000000000000000000000000000101000000000000000000000000000001001100000000000000000000000000010010000000000000000000000000000100010000000000000000000000000001000000000000000000000000000000001111000000000000000000000000000011100000000000000000000000000000110100000000000000000000000000001100000000000000000000000000000010110000000000000000000000000000101000000000000000000000000000001001000000000000000000000000000010000000000000000000000000000000011100000000000000000000000000000110000000000000000000000000000001010000000000000000000000000000010000000000000000000000000000000011000000000000000000000000000000100000000000000000000000000000000100000000000000000000000000000000 .
bx1111111111111111111111111110 1
b11011 (
1'
#109
0'
#110
b11100 &
b11100 ,
#111
b11100 %
b11100 +
#112
b1110000000000000000000000000000011011000000000000000000000000000110100000000000000000000000000001100100000000000000000000000000011000000000000000000000000000000101110000000000000000000000000001011000000000000000000000000000010101000000000000000000000000000101000000000000000000000000000001001100000000000000000000000000010010000000000000000000000000000100010000000000000000000000000001000000000000000000000000000000001111000000000000000000000000000011100000000000000000000000000000110100000000000000000000000000001100000000000000000000000000000010110000000000000000000000000000101000000000000000000000000000001001000000000000000000000000000010000000000000000000000000000000011100000000000000000000000000000110000000000000000000000000000001010000000000000000000000000000010000000000000000000000000000000011000000000000000000000000000000100000000000000000000000000000000100000000000000000000000000000000 -
b11100 s
b11100 q
1r
bx0000000000000000000000000001110000000000000000000000000000011011000000000000000000000000000110100000000000000000000000000001100100000000000000000000000000011000000000000000000000000000000101110000000000000000000000000001011000000000000000000000000000010101000000000000000000000000000101000000000000000000000000000001001100000000000000000000000000010010000000000000000000000000000100010000000000000000000000000001000000000000000000000000000000001111000000000000000000000000000011100000000000000000000000000000110100000000000000000000000000001100000000000000000000000000000010110000000000000000000000000000101000000000000000000000000000001001000000000000000000000000000010000000000000000000000000000000011100000000000000000000000000000110000000000000000000000000000001010000000000000000000000000000010000000000000000000000000000000011000000000000000000000000000000100000000000000000000000000000000100000000000000000000000000000000 .
bx11111111111111111111111111110 1
b11100 (
1'
#113
0'
#114
b11101 &
b11101 ,
#115
b11101 %
b11101 +
